{
    "title": "CourseExams",
    "model": "CourseExams",
    "searchExpression": "(indexof(name, '${text}') ge 0 or indexof(course/displayCode, '${text}') ge 0 or indexof(completedByUser/name, '${text}') ge 0 )",
    "columns": [
      {
        "name": "id",
        "property": "id",
        "placeholder": "Exams.Actions",
        "formatter": "ActionLinkFormatter",
        "actions": [
          {
            "title": "Exams.Preview",
            "href": "#/exams/${id}/"
          },
          {
            "title": "Exams.Edit",
            "href": "#/exams/${id}/edit"
          }
        ]
      },
      {
        "name": "course/displayCode",
        "property": "displayCode",
        "title": "Exams.DisplayCode"
      },
      {
        "name": "name",
        "property": "title",
        "title": "Exams.CourseName"
      },
      {
        "name": "year/alternateName",
        "property": "year",
        "title": "Exams.Year"
      },
      {
        "name": "examPeriod/name",
        "property": "examPeriod",
        "title": "Exams.Period"
      },
      {
        "name": "statistic/numberOfStudents",
        "property": "numberOfStudents",
        "title": "Exams.NumberOfParticipants"
      },
      {
        "name": "numberOfGradedStudents",
        "property": "numberOfGradedStudents",
        "title": "Exams.NumberOfGradedStudents"
      },
      {
        "name": "statistic/pending",
        "property": "pendingGrades",
        "title": "Exams.PendingGrades"
      },
      {
        "name": "statistic/passed",
        "property": "passed",
        "title": "Exams.Passed"
      },
      {
        "name": "status/alternateName",
        "property": "status",
        "title": "Exams.Status",
        "formatter": "TranslationFormatter",
        "formatString": "ExamStatus.${value.toLowerCase()}"
      },
      {
        "name":"examDate",
        "property":"examDate",
        "title":"Exams.ExamDate",
        "formatter": "DateTimeFormatter",
        "formatString": "shortDate"
      },
      {
        "name": "dateCompleted",
        "property": "dateCompleted",
        "title": "Exams.DateCompleted",
        "formatter": "DateTimeFormatter",
        "formatString": "shortDate"
      },
      {
        "name": "completedByUser/name",
        "property": "completedByUser",
        "title": "Exams.CompletedByUser"
      },
      {
        "name": "Instructors",
        "property": "instructors",
        "virtual": true,
        "sortable": false,
        "title": "Exams.Instructors",
        "formatters": [
          {
            "formatter": "TemplateFormatter",
            "formatString": "${instructors.length ? instructors.map(x => x.instructor && (x.instructor.familyName + ' ' + x.instructor.givenName)).join(', ') : '-'}"
          }
        ]
      },
      {
        "name": "gradeScale/name",
        "property": "gradeScale",
        "title": "Exams.GradeScale",
        "hidden": true,
        "optional": true
      },
      {
        "name": "resultDate",
        "property": "resultDate",
        "title": "Exams.SharedColumns.resultDate",
        "formatter": "DateTimeFormatter",
        "formatString": "shortDate",
        "hidden": true,
        "optional": true
      }
    ],
    "defaults":{
      "filter": "(course/department eq ${currentDepartment} and status/alternateName eq 'Completed')",
      "orderBy": "year desc,examPeriod desc,name asc",
      "expand": "instructors($expand=instructor)"
    },
    "criteria": [
      {
        "name": "courseName",
        "filter": "(indexof(name, '${value}') ge 0)",
        "type": "text"
      },
      {
        "name": "displayCode",
        "filter": "(indexof(course/displayCode, '${value}') ge 0)",
        "type": "text"
      },
      {
        "name": "status",
        "filter": "(status/alternateName eq '${value}')",
        "type": "text"
      },
      {
        "name": "yearId",
        "filter": "(year/id eq '${value}')",
        "type": "text"
      },
      {
        "name": "examPeriod",
        "filter": "(examPeriod/name eq '${value}')",
        "type": "text"
      },
      {
        "name": "dateCompleted",
        "filter": "(dateCompleted eq '${value}')",
        "type": "text"
      },
      {
        "name": "pendingExams",
        "filter": "( (status/alternateName eq 'open') or (status/alternateName eq 'inprogress') )",
        "type": "text"
      },
      {
        "name": "currentYear",
        "filter": "(year eq '${currentYear}')",
        "type": "text"
      },
      {
        "name": "pendingGrades",
        "filter": "${value >=1 ? '(statistic/pending gt 0)': '(statistic/pending eq null or statistic/pending le 0)'}",
        "type": "text",
        "title":  "Exams.PendingGrades"
      }
    ],
    "searches": [
    ]
  }
