{
    "model": "DocumentNumberSeriesItem",
    "title": "Documents",
    "searchExpression":"indexof(documentNumber, '${text}') ge 0 or indexof(description, '${text}') ge 0",
    "columns": [
      {
        "name": "documentNumber",
        "title": "Documents.DocumentNumber"
      },
      {
        "name": "description",
        "title": "Documents.Description"
      },
      {
        "name": "documentCode",
        "title": "Documents.DocumentCode",
        "formatter": "TemplateFormatter",
        "formatString": "${documentCode}"
      },
      {
        "name": "dateCreated",
        "title": "Documents.CreatedAt",
        "formatter": "DateTimeFormatter",
        "formatString": "short"
      },
      {
        "name": "dateModified",
        "title": "Documents.ModifiedAt",
        "formatter": "DateTimeFormatter",
        "formatString": "short"
      },
      {
        "name": "url",
        "hidden": true
      },
      {
        "name": "id",
        "formatter": "ButtonFormatter",
        "className": "text-center",
        "formatOptions": {
            "buttonContent": "<i class=\"fas fa-2x fa-file-download text-indigo\"></i>",
            "buttonClass": "btn btn-default",
            "commands": [ "." ],
            "navigationExtras": {
              "replaceUrl": false,
              "queryParams": {
                "download": "${documentCode}"
              }
            }
        }
    }
    ],
    "defaults": {
      "filter": "(documentSeries/department eq ${currentDepartment})",
      "orderBy": "dateModified desc,dateCreated desc"
    }
  }
  
  