{
  "allowSave": false,
  "components": [
    {
      "label": "Columns",
      "columns": [
        {
          "components": [
            {
              "label": "Name",
              "spellcheck": false,
              "tableView": true,
              "validate": {
                "unique": false,
                "multiple": false
              },
              "key": "name",
              "type": "textfield",
              "input": true,
              "hideOnChildrenHidden": false
            }
          ],
          "width": 6,
          "offset": 0,
          "push": 0,
          "pull": 0
        }, 
        {
          "components": [
            {
              "label": "Forms.instituteType",
              "labelPosition": "top",
              "widget": "choicesjs",
              "validate": {
                "required": true
              },

              "dataSrc": "url",
              "data": {
                "url": "InstituteTypes",
                "headers": []
              },
              "template": "<span class='d-block pr-5 text-truncate'>{{ item.name }}</span>",
              "selectValues": "value",
              "key": "instituteTypeName",
              "valueProperty": "alternateName",
              "lazyLoad": false,
              "type": "select",
              "input": true
            }
          ],
          "width": 6,
          "offset": 0,
          "push": 0,
          "pull": 0
        }
      ],
      "tableView": false,
      "key": "department",
      "type": "columns",
      "input": false,
      "path": "columns"
    }
  ]
}
