{
  "model": "ConsentFieldGroups",
  "settings": {
    "i18n": {
      "el": {
        "Set the name of this item":"Ορίστε την ονομασία του στοιχείου",
        "Set an alternate name for this item. This name will be used to identify items":"Ορίστε μία εναλλακτική ονομασία για αυτό το στοιχείο. Αυτό το όνομα θα χρησιμοποιηθεί για την ταυτοποίηση του στοιχείου",
        "This field must contain only latin characters or numbers e.g. active, closed etc. A value is required.": "Αυτό το πεδίο πρέπει να περιέχει μόνον λατινικούς χαρακτήρες ή αριθμούς πχ. active, closed κτλ. Το πεδίο είναι υποχρεωτικό.",
        "Write a short description for this item": "Ορίστε μία σύντομη περιγραφή για αυτό το στοιχείο",
        "Set an identifier that is going to be used either by an external system or by internal processes":"Ορίστε ένα κωδικό ταυτοποίησης ο οποίος πρόκειται να χρησιμοποιηθεί είτε από εξωτερικά συστήματα είτε από εσωτερικές διαδικασίες",
        "Set the value in this language": "Ορίστε την τιμή σε αυτή τη γλώσσα",
        "Additional Languages": "Πρόσθετες Γλώσσες",
        "Archived": "Αρχειοθετημένο",
        "An archived group is hidden in user consents forms": "Μία αρχειοθετημένη ομάδα δεν είναι ορατή στις φόρμες συγκατάθεσης των χρηστών"
      }
    }
  },
  "components": [
    {
      "type": "fieldset",
      "components": [
        {
          "columns": [
            {
              "components": [
                {
                  "label": "Name",
                  "labelPosition": "top",
                  "widget": {
                    "type": "input"
                  },
                  "validate": {
                    "required": true
                  },
                  "key": "name",
                  "type": "textfield",
                  "input": true,
                  "disabled": false,
                  "description": "Set the name of this item"
                }
              ],
              "width": 6
            },
            {
              "components": [
                {
                  "label": "AlternateName",
                  "labelPosition": "top",
                  "widget": {
                    "type": "input"
                  },
                  "validate": {
                    "required": true,
                    "pattern": "^[a-zA-Z0-9_+-]+$",
                    "customMessage": "This field must contain only latin characters or numbers. A value is required."
                  },
                  "key": "alternateName",
                  "type": "textfield",
                  "input": true,
                  "description": "Set an alternate name for this item. This name will be used to identify items"
                },
                {
                  "label": "Archived",
                  "description": "An archived group is hidden in user consents forms",
                  "tableView": false,
                  "key": "archived",
                  "type": "checkbox",
                  "input": true,
                  "defaultValue": false
                }
              ],
              "width": 6
            },
            {
              "components": [
                {
                  "label": "Description",
                  "labelPosition": "top",
                  "widget": {
                    "type": "input"
                  },
                  "validate": {
                    "required": false
                  },
                  "key": "description",
                  "type": "textarea",
                  "input": true,
                  "description": "Write a short description for this item"
                }
              ],
              "width": 12
            }
          ],
          "customClass": "text-dark",
          "hideLabel": true,
          "type": "columns",
          "input": false
        },
        {
          "components": [
            {
              "key": "fieldSet",
              "type": "fieldset",
              "input": false,
              "customClass": "mt-2 font-weight-normal",
              "components": [
                {
                  "label": "",
                  "hideLabel": true,
                  "key": "locales",
                  "type": "datagrid",
                  "disableAddingRemovingRows": true,
                  "input": true,
                  "customClass": "fix-panel-for-locales border-0 p-0",
                  "components": [
                    {
                      "collapsible": false,
                      "hideLabel": true,
                      "key": "panel",
                      "type": "panel",
                      "title": "",
                      "hideTitle": true,
                      "input": false,
                      "tableView": false,
                      "components": [
                        {
                          "content": "<div class=\"h4 font-weight-normal text-secondary pb-2\">{{instance.t('Additional Languages')}}</div>",
                          "refreshOnChange": false,
                          "key": "html",
                          "type": "htmlelement",
                          "input": false,
                          "tableView": false,
                          "customConditional": "show = row.inLanguage && row.inLanguage.length"
                        },
                        {
                          "content": "<div class=\"h5 font-weight-normal text-secondary border-bottom pb-3 border-gray-200 font-weight-normal\">{{instance.t(row.inLanguage)}}</div>",
                          "refreshOnChange": false,
                          "key": "html",
                          "type": "htmlelement",
                          "input": false,
                          "tableView": false,
                          "customConditional": "show = row.inLanguage && row.inLanguage.length"
                        },
                        {
                          "label": "Name",
                          "tableView": true,
                          "key": "name",
                          "validate": {
                            "required": true
                          },
                          "type": "textfield",
                          "input": true
                        },
                        {
                          "label": "Description",
                          "tableView": true,
                          "key": "description",
                          "validate": {
                            "required": true
                          },
                          "type": "textarea",
                          "input": true
                        }
                      ]
                    }
                  ]
                }
              ]
            }
          ],
          "width": 12
        }
      ]
    },
    {
      "type": "button",
      "label": "Submit",
      "key": "submit",
      "disableOnInvalid": true,
      "input": true
    }
  ]
}
