{
  "model": "ProgramGroups",
  "components": [
    {
      "legend": "Program Groups",
      "key": "fieldSet",
      "type": "fieldset",
      "input": false,
      "label": "Program Groups",
      "components": [
        {
          "label": "HTML",
          "tag": "h5",
          "className": "font-weight-normal",
          "content": "{{form.subtitle}}",
          "refreshOnChange": false,
          "tableView": false,
          "key": "subtitle",
          "type": "htmlelement",
          "input": false
        },
        {
          "columns": [
            {
              "components": [
                {
                  "label": "Group Type",
                  "labelPosition": "top",
                  "dataSrc": "url",
                  "data": {
                    "url": "ProgramGroupTypes",
                    "headers": []
                  },
                  "template":  "<span class='col-4 text-truncate'>{{ item.name }}</span>",
                  "key": "groupType.id",
                  "type": "select",
                  "valueProperty": "id",
                  "lazyLoad": false,
                  "hidden": false,
                  "input": true,
                  "selectValues": "value",
                  "widget": "choicesjs",
                  "disabled": false,
                  "defaultValue": 2,
                  "searchEnabled": false,
                  "clearOnHide": false,
                  "validate": {
                    "required": true
                  }
                }
              ],
              "width": 4
            },
            {
              "components": [
                {
                  "label": "Name",
                  "labelPosition": "top",
                  "widget": {
                    "type": "input"
                  },
                  "validate": {
                    "required": true,
                    "maxLength": 150
                  },
                  "key": "name",
                  "type": "textfield",
                  "input": true,
                  "disabled": false
                }
              ],
              "width": 12
            },
            {
              "components": [
                {
                  "label": "DisplayCode",
                  "labelPosition": "top",
                  "widget": {
                    "type": "input"
                  },
                  "validate": {
                    "required": true,
                    "maxLength": 20
                  },
                  "key": "displayCode",
                  "type": "textfield",
                  "input": true
                }
              ],
              "width": 6
            },
            {
              "components": [
                {
                  "label": "Description",
                  "labelPosition": "top",
                  "widget": {
                    "type": "input"
                  },
                  "validate": {
                    "required": false,
                    "maxLength": 150
                  },
                  "key": "description",
                  "type": "textfield",
                  "input": true
                }
              ],
              "width": 6,
              "offset": 0,
              "push": 0,
              "pull": 0
            },
            {
              "components": [
                {
                  "label": "Active study program group",
                  "labelPosition": "top",
                  "searchEnabled": false,
                  "data": {
                    "values": [
                      {
                        "label": "No",
                        "value": "0"
                      },
                      {
                        "label": "Yes",
                        "value": "1"
                      }
                    ]
                  },
                  "key": "isActive",
                  "dataType": "string",
                  "defaultValue": "1",
                  "type": "select",
                  "input": true,
                  "validate": {
                    "required": true
                  }
                }
              ],
              "width": 4
            },
            {
              "components": [
                {
                  "label": "Min Courses",
                  "labelPosition": "top",
                  "widget": {
                    "type": "input"
                  },
                  "validate": {
                    "required": true,
                    "integer": true,
                    "min": 1,
                    "max": 12
                  },
                  "key": "minCourses",
                  "type": "number",
                  "customConditional": "show = data.groupType && data.groupType.id==2;",
                  "input": true,
                  "protected": true
                }
              ],
              "width": 4
            },
            {
              "components": [
                {
                  "label": "Max Courses",
                  "labelPosition": "top",
                  "widget": {
                    "type": "input"
                  },
                  "validate": {
                    "required": true,
                    "integer": true,
                    "min": 1,
                    "max": 100
                  },
                  "key": "maxCourses",
                  "type": "number",
                  "customConditional": "show = data.groupType && data.groupType.id==2;",
                  "input": true,
                  "protected": true
                }
              ],
              "width": 4
            },
            {
              "components": [
                {
                  "label": "Parent Group",
                  "labelPosition": "top",
                  "dataSrc": "url",
                  "data": {
                    "url": "ProgramGroups?$filter=(groupType eq 1) and (program eq {{data.program.id}})",
                    "headers": []
                  },
                  "template":  "<span class='col-4 text-truncate'>{{ item.name }}</span>",
                  "type": "select",
                  "valueProperty": "id",
                  "key": "parentGroup",
                  "dataType": "object",
                  "idPath": "id",
                  "lazyLoad": false,
                  "hidden": false,
                  "input": true,
                  "selectValues": "value",
                  "widget": "choicesjs",
                  "disabled": false,
                  "searchEnabled": false,
                  "customConditional": "show = !!data.program && data.groupType.id==2;",
                  "clearOnHide": false,
                  "validate": {
                    "required": false
                  }
                }
              ],
              "width": 4
            },
            {
              "components": [
                {
                  "label": "Study Program",
                  "labelPosition": "top",
                  "dataSrc": "url",
                  "data": {
                    "url": "StudyPrograms",
                    "headers": []
                  },
                  "template": "{{ item.id }}",
                  "key": "program.id",
                  "type": "select",
                  "valueProperty": "id",
                  "lazyLoad": false,
                  "hidden": true,
                  "input": true,
                  "selectValues": "value",
                  "widget": "choicesjs",
                  "disabled": true,
                  "searchEnabled": false,
                  "clearOnHide": false,
                  "validate": {
                    "required": true
                  }
                }
              ],
              "width": 4,
              "offset": 0,
              "push": 0,
              "pull": 0
            }
          ],
          "customClass": "text-dark",
          "hideLabel": true,
          "type": "columns",
          "input": false
        }
      ]
    },
    {
      "type": "button",
      "label": "Submit",
      "key": "submit",
      "disableOnInvalid": true,
      "input": true
    }
  ]
}
