{
  "model": "StudyProgramCourses",
  "title": "Study program course",
  "subtitle": "Edit",
  "display": "form",
  "settings": {
    "i18n": {
      "el": {
        "Edit": "Επεξεργασία",
        "Study program course": "Μάθημα προγράμματος σπουδών",
        "General": "Γενικά",
        "Course": "Μάθημα",
        "Type": "Τύπος",
        "Set course type according to rules and requirements of this study program.": "Ορίστε τον τύπο του μαθήματος σύμφωνα με τους κανόνες και τις προϋποθέσεις του προγράμματος σπουδών.",
        "Units": "Διδακτικές μονάδες",
        "Set course units. Course units will be used while validating degree requirements.": "Ορίστε τις διδακτικές μονάδες. Οι διδακτικές μονάδες ενός μαθήματος θα χρησιμοποιηθούν κατά τον έλεγχο προϋποθέσεων λήψης πτυχίου.",
        "ECTS": "ECTS",
        "Set ECTS units. Course ECTS will be used while validating degree requirements.": "Ορίστε τις μονάδες ECTS. Οι μονάδες ECTS ενός μαθήματος θα χρησιμοποιηθούν κατά τον έλεγχο προϋποθέσεων λήψης πτυχίου.",
        "Set course semester according to rules and requirements of this study program.": "Ορίστε το εξάμηνό του μαθήματος σύμφωνα με τους κανόνες και τις προϋποθέσεις του προγράμματος σπουδών.",
        "Set course coefficient. This attribute is going to used while calculating degree grade.": "Ορίστε τον συντελεστή του μαθήματος. Το στοιχείο αυτό θα χρησιμοποιηθεί κατά τον υπολογισμό του βαθμού πτυχίου.",
        "Set the student grade": "Ορίστε τον βαθμό του φοιτητή",
        "Exemption": "Απαλλαγή",
        "Calculated Units": "Υπολογίζεται στις μονάδες",
        "Calculated Grade": "Υπολογίζεται στο βαθμό"
      }
    }
  },
  "components": [
    {
      "type": "fieldset",
      "components": [
        {
          "label": "HTML",
          "tag": "h5",
          "className": "font-weight-normal",
          "content": "{{instance.t(form.subtitle)}}",
          "refreshOnChange": false,
          "tableView": false,
          "key": "subtitle",
          "type": "htmlelement",
          "input": false
        },
        {
          "columns": [
            {
              "components": [
                {
                  "label": "Type",
                  "labelPosition": "top",
                  "widget": "choicesjs",
                  "dataSrc": "url",
                  "data": {
                    "url": "CourseTypes?$top={{limit}}&$skip={{skip}}&$select=id,name&$filter=indexof(name, '{{encodeURIComponent(search||'')}}') ge 0&$orderby=name",
                    "headers": []
                  },
                  "validate": {
                    "required": true
                  },
                  "template": "<span class='col-4 text-truncate'>{{ item.name }}</span>",
                  "searchEnabled": true,
                  "searchThreshold": "0.3",
                  "searchField": "search",
                  "selectValues": "value",
                  "key": "courseType",
                  "limit": 15,
                  "dataType": "object",
                  "idPath": "id",
                  "type": "select",
                  "input": true,
                  "lazyLoad": true,
                  "description": "Set course type according to rules and requirements of this study program."
                },
                {
                  "label": "Semester",
                  "labelPosition": "top",
                  "widget": "choicesjs",
                  "dataSrc": "url",
                  "data": {
                    "url": "Semesters?$orderby=id",
                    "headers": []
                  },
                  "template": "<span class='col-4 text-truncate'>{{ item.name }}</span>",
                  "selectValues": "value",
                  "key": "semester",
                  "searchEnabled": false,
                  "type": "select",
                  "input": true,
                  "lazyLoad": false,
                  "description": "Set course semester according to rules and requirements of this study program.",
                  "validate": {
                    "required": true
                  }
                },
                {
                  "label": "Specialty",
                  "labelPosition": "top",
                  "widget": "choicesjs",
                  "dataSrc": "url",
                  "data": {
                    "url": "StudyProgramSpecialties?$orderby=id",
                    "headers": []
                  },
                  "template": "<span class='col-4 text-truncate'>{{ item.name }}</span>",
                  "selectValues": "value",
                  "key": "specialty",
                  "valueProperty": "id",
                  "searchEnabled": false,
                  "type": "select",
                  "input": true,
                  "lazyLoad": false,
                  "description": "Set course semester according to rules and requirements of this study program.",
                  "customClass": "pt-2",
                  "validate": {
                    "required": true
                  }
                },
                {
                  "label": "Notes",
                  "labelPosition": "top",
                  "widget": {
                    "type": "input"
                  },
                  "validate": {
                    "required": false
                  },
                  "key": "notes",
                  "type": "textarea",
                  "input": true,
                  "customClass": "my-3 py-3"
                }
              ],
              "width": 6,
              "offset": 0,
              "push": 0,
              "pull": 0
            },
            {
              "components": [
                {
                  "label": "Units",
                  "mask": false,
                  "spellcheck": true,
                  "tableView": false,
                  "delimiter": false,
                  "requireDecimal": false,
                  "inputFormat": "plain",
                  "validate": {
                    "required": true
                  },
                  "key": "units",
                  "type": "number",
                  "input": true,
                  "hideOnChildrenHidden": false,
                  "description": "Set course units. Course units will be used while validating degree requirements."
                },
                {
                  "label": "ECTS",
                  "mask": false,
                  "spellcheck": true,
                  "tableView": false,
                  "delimiter": false,
                  "requireDecimal": false,
                  "inputFormat": "plain",
                  "validate": {
                    "required": true
                  },
                  "key": "ects",
                  "type": "number",
                  "input": true,
                  "hideOnChildrenHidden": false,
                  "description": "Set ECTS units. Course ECTS will be used while validating degree requirements."
                },
                {
                  "label": "Coefficient",
                  "mask": false,
                  "spellcheck": true,
                  "tableView": false,
                  "delimiter": false,
                  "requireDecimal": false,
                  "inputFormat": "plain",
                  "validate": {
                    "required": true,
                    "integer": false
                  },
                  "key": "coefficient",
                  "type": "number",
                  "input": true,
                  "hideOnChildrenHidden": false,
                  "description": "Set course coefficient. This attribute is going to used while calculating degree grade."
                },
                {
                  "label": "Period",
                  "labelPosition": "top",
                  "widget": "choicesjs",
                  "dataSrc": "url",
                  "data": {
                    "url": "AcademicPeriods",
                    "headers": []
                  },
                  "searchFields": [
                    "value.id",
                    "value.alternateName"
                  ],
                  "template": "<span class='d-block pr-5 text-truncate'>{{ item.name }}</span>",
                  "selectValues": "value",
                  "key": "gradePeriod",
                  "lazyLoad": false,
                  "type": "select",
                  "input": true,
                  "validate": {
                    "required": true
                  }
                },
                {
                  "label": "Calculated Units",
                  "tableView": true,
                  "key": "calculateUnits",
                  "type": "checkbox",
                  "input": true,
                  "defaultValue": false,
                  "customClass": "my-3 py-3",
                  "validate": {
                    "required": false
                  }
                },
                {
                  "label": "Calculated Grade",
                  "tableView": true,
                  "key": "calculateGrade",
                  "type": "checkbox",
                  "input": true,
                  "defaultValue": false,
                  "customClass": "my-3 py-3",
                  "validate": {
                    "required": false
                  }
                }
              ],
              "width": 6,
              "offset": 0,
              "push": 0,
              "pull": 0
            }
          ],
          "hideLabel": true,
          "type": "columns",
          "input": false
        }
      ]
    },
    {
      "type": "button",
      "label": "Submit",
      "key": "submit",
      "theme": "indigo",
      "hidden": true,
      "disableOnInvalid": true,
      "input": true,
      "tableView": false
    }
  ]
}
